module gitlab.com/gitlab-org/gitaly

exclude (
	// grpc-go version v1.34.0 and v1.35.0-dev have a bug that affects unix domain docket
	// dialing. It should be avoided until upgraded to a newer fixed
	// version. More details:
	// https://github.com/grpc/grpc-go/issues/3990
	github.com/grpc/grpc-go v1.34.0
	github.com/grpc/grpc-go v1.35.0-dev
)

require (
	github.com/beorn7/perks v1.0.1 // indirect
	github.com/cloudflare/tableflip v1.2.1-0.20200514155827-4baec9811f2b
	github.com/containerd/cgroups v0.0.0-20201118023556-2819c83ced99
	github.com/getsentry/sentry-go v0.7.0
	github.com/git-lfs/git-lfs v1.5.1-0.20200916154635-9ea4eed5b112
	github.com/golang/protobuf v1.3.3
	github.com/google/uuid v1.1.1
	github.com/grpc-ecosystem/go-grpc-middleware v1.2.2
	github.com/grpc-ecosystem/go-grpc-prometheus v1.2.0
	github.com/hashicorp/go-uuid v1.0.2 // indirect
	github.com/hashicorp/golang-lru v0.5.4
	github.com/kelseyhightower/envconfig v1.3.0
	github.com/lib/pq v1.2.0
	github.com/libgit2/git2go/v30 v30.0.18
	github.com/mattn/go-isatty v0.0.12 // indirect
	github.com/olekukonko/tablewriter v0.0.2
	github.com/opencontainers/runtime-spec v1.0.2
	github.com/opentracing/opentracing-go v1.2.0
	github.com/otiai10/curr v1.0.0 // indirect
	github.com/pelletier/go-toml v1.8.1
	github.com/prometheus/client_golang v1.0.0
	github.com/prometheus/procfs v0.0.3 // indirect
	github.com/rubenv/sql-migrate v0.0.0-20191213152630-06338513c237
	github.com/sirupsen/logrus v1.7.0
	github.com/stretchr/testify v1.6.1
	github.com/uber/jaeger-client-go v2.15.0+incompatible
	gitlab.com/gitlab-org/gitlab-shell v1.9.8-0.20201117050822-3f9890ef73dc
	gitlab.com/gitlab-org/labkit v1.0.0
	golang.org/x/crypto v0.0.0-20200820211705-5c72a883971a // indirect
	golang.org/x/net v0.0.0-20200904194848-62affa334b73 // indirect
	golang.org/x/sync v0.0.0-20200625203802-6e8e738ad208
	golang.org/x/sys v0.0.0-20201015000850-e3ed0017c211
	golang.org/x/text v0.3.3 // indirect
	google.golang.org/grpc v1.29.1
	gopkg.in/yaml.v2 v2.3.0 // indirect
)

go 1.13
